<?xml version="1.0" encoding="UTF-8"?>
<session version="1.0">
<refactoring comment="Delete resource &apos;Laborator 5 - Kruskal MSP&apos;" deleteContents="false" description="Delete resource &apos;Laborator 5 - Kruskal MSP&apos;" element1="/Laborator 5 - Kruskal MSP" flags="7" id="org.eclipse.ltk.core.refactoring.delete.resources" resources="1" stamp="1543442868792"/>
</session>