^C:\USERS\BOGDAN\DESKTOP\PROGRAMS\AN II\ALGRAF\GRAF\DEBUG\GRAF.OBJ|C:\USERS\BOGDAN\DESKTOP\PROGRAMS\AN II\ALGRAF\GRAF\DEBUG\GRAF.RES|C:\USERS\BOGDAN\DESKTOP\PROGRAMS\AN II\ALGRAF\GRAF\DEBUG\GRAFDLG.OBJ|C:\USERS\BOGDAN\DESKTOP\PROGRAMS\AN II\ALGRAF\GRAF\DEBUG\PCH.OBJ
/OUT:"C:\USERS\BOGDAN\DESKTOP\PROGRAMS\AN II\ALGRAF\GRAF\DEBUG\GRAF.EXE" /INCREMENTAL /NOLOGO /MANIFEST /MANIFESTUAC:"level='asInvoker' uiAccess='false'" /manifest:embed /manifestinput:"C:\PROGRAM FILES (X86)\MICROSOFT VISUAL STUDIO\2019\COMMUNITY\VC\TOOLS\MSVC\14.23.28105\INCLUDE\MANIFEST\DPIAWARE.MANIFEST" /DEBUG:FASTLINK /PDB:"C:\USERS\BOGDAN\DESKTOP\PROGRAMS\AN II\ALGRAF\GRAF\DEBUG\GRAF.PDB" /SUBSYSTEM:WINDOWS /TLBID:1 /DYNAMICBASE /NXCOMPAT /IMPLIB:"C:\USERS\BOGDAN\DESKTOP\PROGRAMS\AN II\ALGRAF\GRAF\DEBUG\GRAF.LIB" /MACHINE:X86 DEBUG\GRAF.RES
DEBUG\GRAF.OBJ
DEBUG\GRAFDLG.OBJ
DEBUG\PCH.OBJ
