^C:\USERS\BOGDAN\DESKTOP\PROGRAMS\AN II\ALGRAF\GRAF\PCH.CPP
/c /Zi /nologo /W3 /WX- /diagnostics:column /sdl /O2 /Oi /Oy- /GL /D WIN32 /D _WINDOWS /D NDEBUG /D _UNICODE /D UNICODE /D _AFXDLL /Gm- /EHsc /MD /GS /Gy /fp:precise /Zc:wchar_t /Zc:forScope /Zc:inline /Yc"pch.h" /Fp"RELEASE\GRAF.PCH" /Fo"RELEASE\\" /Fd"RELEASE\VC142.PDB" /Gd /TP /analyze- /FC C:\USERS\BOGDAN\DESKTOP\PROGRAMS\AN II\ALGRAF\GRAF\PCH.CPP
^C:\USERS\BOGDAN\DESKTOP\PROGRAMS\AN II\ALGRAF\GRAF\GRAF.CPP
/c /Zi /nologo /W3 /WX- /diagnostics:column /sdl /O2 /Oi /Oy- /GL /D WIN32 /D _WINDOWS /D NDEBUG /D _UNICODE /D UNICODE /D _AFXDLL /Gm- /EHsc /MD /GS /Gy /fp:precise /Zc:wchar_t /Zc:forScope /Zc:inline /Yu"pch.h" /Fp"RELEASE\GRAF.PCH" /Fo"RELEASE\\" /Fd"RELEASE\VC142.PDB" /Gd /TP /analyze- /FC C:\USERS\BOGDAN\DESKTOP\PROGRAMS\AN II\ALGRAF\GRAF\GRAF.CPP
^E:\FACULTATEAN II\ALGGRAF\GRAF\PCH.CPP
/c /Zi /nologo /W3 /WX- /diagnostics:column /sdl /O2 /Oi /Oy- /GL /D WIN32 /D _WINDOWS /D NDEBUG /D _UNICODE /D UNICODE /D _AFXDLL /Gm- /EHsc /MD /GS /Gy /fp:precise /Zc:wchar_t /Zc:forScope /Zc:inline /Yc"pch.h" /Fp"RELEASE\GRAF.PCH" /Fo"RELEASE\\" /Fd"RELEASE\VC142.PDB" /Gd /TP /analyze- /FC E:\FACULTATEAN II\ALGGRAF\GRAF\PCH.CPP
^E:\FACULTATEAN II\ALGGRAF\GRAF\GRAF.CPP
/c /Zi /nologo /W3 /WX- /diagnostics:column /sdl /O2 /Oi /Oy- /GL /D WIN32 /D _WINDOWS /D NDEBUG /D _UNICODE /D UNICODE /D _AFXDLL /Gm- /EHsc /MD /GS /Gy /fp:precise /Zc:wchar_t /Zc:forScope /Zc:inline /Yu"pch.h" /Fp"RELEASE\GRAF.PCH" /Fo"RELEASE\\" /Fd"RELEASE\VC142.PDB" /Gd /TP /analyze- /FC E:\FACULTATEAN II\ALGGRAF\GRAF\GRAF.CPP
^E:\FACULTATEAN II\ALGGRAF\GRAF\GRAFDLG.CPP
/c /Zi /nologo /W3 /WX- /diagnostics:column /sdl /O2 /Oi /Oy- /GL /D WIN32 /D _WINDOWS /D NDEBUG /D _UNICODE /D UNICODE /D _AFXDLL /Gm- /EHsc /MD /GS /Gy /fp:precise /Zc:wchar_t /Zc:forScope /Zc:inline /Yu"pch.h" /Fp"RELEASE\GRAF.PCH" /Fo"RELEASE\\" /Fd"RELEASE\VC142.PDB" /Gd /TP /analyze- /FC E:\FACULTATEAN II\ALGGRAF\GRAF\GRAFDLG.CPP
